{
	"id": 1,
	"total": 4,
	"result": [
		{
			"id": 1,
			"picture": "img/profilo.jpg",
			"title": "Valentina Guzzi",
			"subtitle": "Titolare",
			"body": "",
            "email": "msgroma@libero.it",
            "linkedin": "fb.me/mondosenzaglutineroma",
            "twitter": "@msg_noglutine"
            
		}
	]
}